module gitlab.com/aklin/mcbi

go 1.21

require (
	github.com/naoina/toml v0.1.2-0.20170918210437-9fafd6967416
	github.com/stretchr/testify v1.8.0
	github.com/urfave/cli/v2 v2.25.7
	gitlab.com/aklin/linkch v0.0.0-20230927093746-8a478af29565
)

require (
	github.com/go-ole/go-ole v1.2.5 // indirect
	github.com/gorilla/websocket v1.4.2 // indirect
)

require (
	github.com/DataDog/zstd v1.5.2 // indirect
	github.com/VictoriaMetrics/fastcache v1.6.0 // indirect
	github.com/beorn7/perks v1.0.1 // indirect
	github.com/cespare/xxhash/v2 v2.2.0 // indirect
	github.com/cockroachdb/errors v1.9.1 // indirect
	github.com/cockroachdb/logtags v0.0.0-20230118201751-21c54148d20b // indirect
	github.com/cockroachdb/pebble v0.0.0-20230209160836-829675f94811 // indirect
	github.com/cockroachdb/redact v1.1.3 // indirect
	github.com/davecgh/go-spew v1.1.1 // indirect
	github.com/edsrzf/mmap-go v1.0.0 // indirect
	github.com/gballet/go-libpcsclite v0.0.0-20190607065134-2772fd86a8ff // indirect
	github.com/getsentry/sentry-go v0.18.0 // indirect
	github.com/gofrs/flock v0.8.1 // indirect
	github.com/gogo/protobuf v1.3.2 // indirect
	github.com/golang/protobuf v1.5.2 // indirect
	github.com/golang/snappy v0.0.5-0.20220116011046-fa5810519dcb // indirect
	github.com/holiman/bloomfilter/v2 v2.0.3 // indirect
	github.com/huin/goupnp v1.0.3 // indirect
	github.com/jackpal/go-nat-pmp v1.0.2 // indirect
	github.com/klauspost/compress v1.15.15 // indirect
	github.com/kr/pretty v0.3.1 // indirect
	github.com/kr/text v0.2.0 // indirect
	github.com/mattn/go-runewidth v0.0.9 // indirect
	github.com/matttproud/golang_protobuf_extensions v1.0.4 // indirect
	github.com/olekukonko/tablewriter v0.0.5 // indirect
	github.com/pkg/errors v0.9.1 // indirect
	github.com/pmezard/go-difflib v1.0.0 // indirect
	github.com/prometheus/client_golang v1.14.0 // indirect
	github.com/prometheus/client_model v0.3.0 // indirect
	github.com/prometheus/common v0.39.0 // indirect
	github.com/prometheus/procfs v0.9.0 // indirect
	github.com/rogpeppe/go-internal v1.9.0 // indirect
	github.com/status-im/keycard-go v0.2.0 // indirect
	github.com/syndtr/goleveldb v1.0.1-0.20210819022825-2ae1ddf74ef7 // indirect
	github.com/tyler-smith/go-bip39 v1.1.0 // indirect
	golang.org/x/exp v0.0.0-20230206171751-46f607a40771 // indirect
	golang.org/x/sync v0.1.0 // indirect
	golang.org/x/text v0.12.0
	google.golang.org/protobuf v1.28.1 // indirect
	gopkg.in/yaml.v3 v3.0.1 // indirect
)

require (
	github.com/StackExchange/wmi v1.2.1 // indirect
	github.com/btcsuite/btcd/btcec/v2 v2.2.0 // indirect
	github.com/cpuguy83/go-md2man/v2 v2.0.2 // indirect
	github.com/deckarep/golang-set/v2 v2.1.0 // indirect
	github.com/decred/dcrd/dcrec/secp256k1/v4 v4.0.1 // indirect
	github.com/fsnotify/fsnotify v1.6.0 // indirect
	github.com/go-stack/stack v1.8.1 // indirect
	github.com/google/uuid v1.3.0 // indirect
	github.com/holiman/uint256 v1.2.3 // indirect
	github.com/naoina/go-stringutil v0.1.0 // indirect
	github.com/russross/blackfriday/v2 v2.1.0 // indirect
	github.com/shirou/gopsutil v3.21.4-0.20210419000835-c7a38de76ee5+incompatible // indirect
	github.com/shopspring/decimal v1.3.1
	github.com/tklauser/go-sysconf v0.3.12 // indirect
	github.com/tklauser/numcpus v0.6.1 // indirect
	github.com/xrash/smetrics v0.0.0-20201216005158-039620a65673 // indirect
	golang.org/x/crypto v0.12.0
	golang.org/x/sys v0.11.0 // indirect
	gopkg.in/natefinch/npipe.v2 v2.0.0-20160621034901-c1b8fa8bdcce // indirect
)
